<?xml version="1.0" encoding="UTF-8" standalone="no"?>
<!DOCTYPE svg PUBLIC "-//W3C//DTD SVG 1.1//EN"
 "http://www.w3.org/Graphics/SVG/1.1/DTD/svg11.dtd">
<!-- Generated by graphviz version 2.31.0 (20130204.0202)
 -->
<!-- Title: 595880025 Pages: 1 -->
<svg width="233pt" height="288pt"
 viewBox="0.00 0.00 466.00 576.00" xmlns="http://www.w3.org/2000/svg" xmlns:xlink="http://www.w3.org/1999/xlink">
<g id="graph0" class="graph" transform="scale(1 1) rotate(0) translate(4 572)">
<title>595880025</title>
<polygon fill="transparent" stroke="transparent" points="-4,5 -4,-572 463,-572 463,5 -4,5"/>
<!-- k_0 -->
<g id="node1" class="node"><title>k_0</title>
<polygon fill="none" stroke="yellow" points="120.25,-110 51.75,-110 51.75,-74 120.25,-74 120.25,-110"/>
<text text-anchor="middle" x="86" y="-88.9" font-family="Courier,monospace" font-size="12.00">i_out:0</text>
</g>
<!-- u_16 -->
<g id="node17" class="node"><title>u_16</title>
<polygon fill="none" stroke="black" points="230,-8 230,-27 260,-27 260,-8 230,-8"/>
<text text-anchor="start" x="233.5" y="-14.9" font-family="Courier,monospace" font-size="12.00">Out</text>
<polygon fill="none" stroke="black" points="262,-8 262,-27 268,-27 268,-8 262,-8"/>
<polygon fill="none" stroke="black" points="270,-8 270,-27 276,-27 276,-8 270,-8"/>
<polygon fill="none" stroke="black" points="278,-8 278,-27 284,-27 284,-8 278,-8"/>
</g>
<!-- k_0&#45;&gt;u_16 -->
<g id="edge15" class="edge"><title>k_0&#45;&gt;u_16:i_0</title>
<path fill="none" stroke="yellow" d="M120.513,-78.853C167.246,-62.4052 246.634,-34.464 262.278,-28.9581"/>
<polygon fill="yellow" stroke="yellow" points="264.668,-27.0567 265.332,-28.9433 263.445,-29.6073 262.781,-27.7207 264.668,-27.0567"/>
<polyline fill="none" stroke="yellow" points="263.113,-28.664 262.642,-28.83 "/>
</g>
<!-- u_1 -->
<g id="node2" class="node"><title>u_1</title>
<polygon fill="none" stroke="blue" points="128,-542 128,-561 173,-561 173,-542 128,-542"/>
<text text-anchor="start" x="131.5" y="-548.9" font-family="Courier,monospace" font-size="12.00">LFSaw</text>
<polygon fill="none" stroke="blue" points="175,-542 175,-561 189,-561 189,-542 175,-542"/>
<text text-anchor="start" x="178" y="-548.9" font-family="Courier,monospace" font-size="12.00">8</text>
<polygon fill="none" stroke="blue" points="191,-542 191,-561 205,-561 205,-542 191,-542"/>
<text text-anchor="start" x="194" y="-548.9" font-family="Courier,monospace" font-size="12.00">0</text>
<polygon fill="none" stroke="blue" points="191,-534 191,-540 205,-540 205,-534 191,-534"/>
</g>
<!-- u_2 -->
<g id="node3" class="node"><title>u_2</title>
<polygon fill="none" stroke="blue" points="140,-466 140,-485 193,-485 193,-466 140,-466"/>
<text text-anchor="start" x="143.5" y="-472.9" font-family="Courier,monospace" font-size="12.00">MulAdd</text>
<polygon fill="none" stroke="blue" points="195,-466 195,-485 201,-485 201,-466 195,-466"/>
<polygon fill="none" stroke="blue" points="203,-466 203,-485 217,-485 217,-466 203,-466"/>
<text text-anchor="start" x="206" y="-472.9" font-family="Courier,monospace" font-size="12.00">3</text>
<polygon fill="none" stroke="blue" points="219,-466 219,-485 241,-485 241,-466 219,-466"/>
<text text-anchor="start" x="222" y="-472.9" font-family="Courier,monospace" font-size="12.00">80</text>
<polygon fill="none" stroke="blue" points="219,-458 219,-464 241,-464 241,-458 219,-458"/>
</g>
<!-- u_1&#45;&gt;u_2 -->
<g id="edge1" class="edge"><title>u_1:o_0&#45;&gt;u_2:i_0</title>
<path fill="none" stroke="blue" d="M198,-533C198,-533 198,-498.289 198,-488.527"/>
<polygon fill="blue" stroke="blue" points="197,-486 199,-486 199,-488 197,-488 197,-486"/>
<polyline fill="none" stroke="blue" points="198,-488 198,-488.5 "/>
</g>
<!-- u_6 -->
<g id="node7" class="node"><title>u_6</title>
<polygon fill="none" stroke="blue" points="73,-390 73,-409 126,-409 126,-390 73,-390"/>
<text text-anchor="start" x="76.5" y="-396.9" font-family="Courier,monospace" font-size="12.00">MulAdd</text>
<polygon fill="none" stroke="blue" points="128,-390 128,-409 134,-409 134,-390 128,-390"/>
<polygon fill="none" stroke="blue" points="136,-390 136,-409 158,-409 158,-390 136,-390"/>
<text text-anchor="start" x="139" y="-396.9" font-family="Courier,monospace" font-size="12.00">24</text>
<polygon fill="none" stroke="blue" points="160,-390 160,-409 166,-409 166,-390 160,-390"/>
<polygon fill="none" stroke="blue" points="160,-382 160,-388 166,-388 166,-382 160,-382"/>
</g>
<!-- u_2&#45;&gt;u_6 -->
<g id="edge4" class="edge"><title>u_2:o_0&#45;&gt;u_6:i_2</title>
<path fill="none" stroke="blue" d="M230,-457C230,-457 176.855,-419.719 165.229,-411.564"/>
<polygon fill="blue" stroke="blue" points="162.426,-410.819 163.574,-409.181 165.212,-410.33 164.063,-411.967 162.426,-410.819"/>
<polyline fill="none" stroke="blue" points="164.637,-411.149 165.047,-411.436 "/>
</g>
<!-- u_3 -->
<g id="node4" class="node"><title>u_3</title>
<polygon fill="none" stroke="blue" points="244,-542 244,-561 289,-561 289,-542 244,-542"/>
<text text-anchor="start" x="247.5" y="-548.9" font-family="Courier,monospace" font-size="12.00">LFSaw</text>
<polygon fill="none" stroke="blue" points="291,-542 291,-561 328,-561 328,-542 291,-542"/>
<text text-anchor="start" x="294" y="-548.9" font-family="Courier,monospace" font-size="12.00">7.23</text>
<polygon fill="none" stroke="blue" points="330,-542 330,-561 344,-561 344,-542 330,-542"/>
<text text-anchor="start" x="333" y="-548.9" font-family="Courier,monospace" font-size="12.00">0</text>
<polygon fill="none" stroke="blue" points="330,-534 330,-540 344,-540 344,-534 330,-534"/>
</g>
<!-- u_4 -->
<g id="node5" class="node"><title>u_4</title>
<polygon fill="none" stroke="blue" points="279,-466 279,-485 332,-485 332,-466 279,-466"/>
<text text-anchor="start" x="282.5" y="-472.9" font-family="Courier,monospace" font-size="12.00">MulAdd</text>
<polygon fill="none" stroke="blue" points="334,-466 334,-485 340,-485 340,-466 334,-466"/>
<polygon fill="none" stroke="blue" points="342,-466 342,-485 356,-485 356,-466 342,-466"/>
<text text-anchor="start" x="345" y="-472.9" font-family="Courier,monospace" font-size="12.00">3</text>
<polygon fill="none" stroke="blue" points="358,-466 358,-485 380,-485 380,-466 358,-466"/>
<text text-anchor="start" x="361" y="-472.9" font-family="Courier,monospace" font-size="12.00">80</text>
<polygon fill="none" stroke="blue" points="358,-458 358,-464 380,-464 380,-458 358,-458"/>
</g>
<!-- u_3&#45;&gt;u_4 -->
<g id="edge2" class="edge"><title>u_3:o_0&#45;&gt;u_4:i_0</title>
<path fill="none" stroke="blue" d="M337,-533C337,-533 337,-498.289 337,-488.527"/>
<polygon fill="blue" stroke="blue" points="336,-486 338,-486 338,-488 336,-488 336,-486"/>
<polyline fill="none" stroke="blue" points="337,-488 337,-488.5 "/>
</g>
<!-- u_11 -->
<g id="node12" class="node"><title>u_11</title>
<polygon fill="none" stroke="blue" points="242,-390 242,-409 295,-409 295,-390 242,-390"/>
<text text-anchor="start" x="245.5" y="-396.9" font-family="Courier,monospace" font-size="12.00">MulAdd</text>
<polygon fill="none" stroke="blue" points="297,-390 297,-409 303,-409 303,-390 297,-390"/>
<polygon fill="none" stroke="blue" points="305,-390 305,-409 327,-409 327,-390 305,-390"/>
<text text-anchor="start" x="308" y="-396.9" font-family="Courier,monospace" font-size="12.00">24</text>
<polygon fill="none" stroke="blue" points="329,-390 329,-409 335,-409 335,-390 329,-390"/>
<polygon fill="none" stroke="blue" points="329,-382 329,-388 335,-388 335,-382 329,-382"/>
</g>
<!-- u_4&#45;&gt;u_11 -->
<g id="edge10" class="edge"><title>u_4:o_0&#45;&gt;u_11:i_2</title>
<path fill="none" stroke="blue" d="M369,-457C369,-457 340.672,-421.016 333.59,-412.02"/>
<polygon fill="blue" stroke="blue" points="331.214,-410.619 332.786,-409.381 334.023,-410.953 332.451,-412.19 331.214,-410.619"/>
<polyline fill="none" stroke="blue" points="333.237,-411.571 333.546,-411.964 "/>
</g>
<!-- u_5 -->
<g id="node6" class="node"><title>u_5</title>
<polygon fill="none" stroke="blue" points="9,-466 9,-485 54,-485 54,-466 9,-466"/>
<text text-anchor="start" x="12.5" y="-472.9" font-family="Courier,monospace" font-size="12.00">LFSaw</text>
<polygon fill="none" stroke="blue" points="56,-466 56,-485 85,-485 85,-466 56,-466"/>
<text text-anchor="start" x="59" y="-472.9" font-family="Courier,monospace" font-size="12.00">0.4</text>
<polygon fill="none" stroke="blue" points="87,-466 87,-485 101,-485 101,-466 87,-466"/>
<text text-anchor="start" x="90" y="-472.9" font-family="Courier,monospace" font-size="12.00">0</text>
<polygon fill="none" stroke="blue" points="87,-458 87,-464 101,-464 101,-458 87,-458"/>
</g>
<!-- u_5&#45;&gt;u_6 -->
<g id="edge3" class="edge"><title>u_5:o_0&#45;&gt;u_6:i_0</title>
<path fill="none" stroke="blue" d="M94,-457C94,-457 122.328,-421.016 129.41,-412.02"/>
<polygon fill="blue" stroke="blue" points="130.214,-409.381 131.786,-410.619 130.549,-412.19 128.977,-410.953 130.214,-409.381"/>
<polyline fill="none" stroke="blue" points="129.763,-411.571 129.454,-411.964 "/>
</g>
<!-- u_5&#45;&gt;u_11 -->
<g id="edge9" class="edge"><title>u_5:o_0&#45;&gt;u_11:i_0</title>
<path fill="none" stroke="blue" d="M102,-461C102,-461 274.576,-416.549 297.497,-410.645"/>
<polygon fill="blue" stroke="blue" points="299.751,-409.032 300.249,-410.968 298.313,-411.467 297.814,-409.531 299.751,-409.032"/>
<polyline fill="none" stroke="blue" points="298.063,-410.499 297.579,-410.624 "/>
</g>
<!-- u_7 -->
<g id="node8" class="node"><title>u_7</title>
<polygon fill="none" stroke="blue" points="98,-314 98,-333 158,-333 158,-314 98,-314"/>
<text text-anchor="start" x="101.5" y="-320.9" font-family="Courier,monospace" font-size="12.00">MIDICPS</text>
<polygon fill="none" stroke="blue" points="160,-314 160,-333 166,-333 166,-314 160,-314"/>
<polygon fill="none" stroke="blue" points="160,-306 160,-312 166,-312 166,-306 160,-306"/>
</g>
<!-- u_6&#45;&gt;u_7 -->
<g id="edge5" class="edge"><title>u_6:o_0&#45;&gt;u_7:i_0</title>
<path fill="none" stroke="blue" d="M163,-381C163,-381 163,-346.289 163,-336.527"/>
<polygon fill="blue" stroke="blue" points="162,-334 164,-334 164,-336 162,-336 162,-334"/>
<polyline fill="none" stroke="blue" points="163,-336 163,-336.5 "/>
</g>
<!-- u_8 -->
<g id="node9" class="node"><title>u_8</title>
<polygon fill="none" stroke="black" points="105,-238 105,-257 158,-257 158,-238 105,-238"/>
<text text-anchor="start" x="108.5" y="-244.9" font-family="Courier,monospace" font-size="12.00">SinOsc</text>
<polygon fill="none" stroke="black" points="160,-238 160,-257 166,-257 166,-238 160,-238"/>
<polygon fill="none" stroke="black" points="168,-238 168,-257 182,-257 182,-238 168,-238"/>
<text text-anchor="start" x="171" y="-244.9" font-family="Courier,monospace" font-size="12.00">0</text>
<polygon fill="none" stroke="black" points="168,-230 168,-236 182,-236 182,-230 168,-230"/>
</g>
<!-- u_7&#45;&gt;u_8 -->
<g id="edge6" class="edge"><title>u_7:o_0&#45;&gt;u_8:i_0</title>
<path fill="none" stroke="blue" d="M163,-305C163,-305 163,-270.289 163,-260.527"/>
<polygon fill="blue" stroke="blue" points="162,-258 164,-258 164,-260 162,-260 162,-258"/>
<polyline fill="none" stroke="blue" points="163,-260 163,-260.5 "/>
</g>
<!-- u_9 -->
<g id="node10" class="node"><title>u_9</title>
<polygon fill="none" stroke="black" points="155,-162 155,-181 170,-181 170,-162 155,-162"/>
<text text-anchor="start" x="158.5" y="-168.9" font-family="Courier,monospace" font-size="12.00">*</text>
<polygon fill="none" stroke="black" points="172,-162 172,-181 178,-181 178,-162 172,-162"/>
<polygon fill="none" stroke="black" points="180,-162 180,-181 217,-181 217,-162 180,-162"/>
<text text-anchor="start" x="183" y="-168.9" font-family="Courier,monospace" font-size="12.00">0.04</text>
<polygon fill="none" stroke="black" points="180,-154 180,-160 217,-160 217,-154 180,-154"/>
</g>
<!-- u_8&#45;&gt;u_9 -->
<g id="edge7" class="edge"><title>u_8:o_0&#45;&gt;u_9:i_0</title>
<path fill="none" stroke="black" d="M175,-229C175,-229 175,-194.289 175,-184.527"/>
<polygon fill="black" stroke="black" points="174,-182 176,-182 176,-184 174,-184 174,-182"/>
<polyline fill="none" stroke="black" points="175,-184 175,-184.5 "/>
</g>
<!-- u_10 -->
<g id="node11" class="node"><title>u_10</title>
<polygon fill="none" stroke="black" points="149,-86 149,-105 194,-105 194,-86 149,-86"/>
<text text-anchor="start" x="152.5" y="-92.9" font-family="Courier,monospace" font-size="12.00">CombN</text>
<polygon fill="none" stroke="black" points="196,-86 196,-105 202,-105 202,-86 196,-86"/>
<polygon fill="none" stroke="black" points="204,-86 204,-105 233,-105 233,-86 204,-86"/>
<text text-anchor="start" x="207" y="-92.9" font-family="Courier,monospace" font-size="12.00">0.2</text>
<polygon fill="none" stroke="black" points="235,-86 235,-105 264,-105 264,-86 235,-86"/>
<text text-anchor="start" x="238" y="-92.9" font-family="Courier,monospace" font-size="12.00">0.2</text>
<polygon fill="none" stroke="black" points="266,-86 266,-105 280,-105 280,-86 266,-86"/>
<text text-anchor="start" x="269" y="-92.9" font-family="Courier,monospace" font-size="12.00">4</text>
<polygon fill="none" stroke="black" points="266,-78 266,-84 280,-84 280,-78 266,-78"/>
</g>
<!-- u_9&#45;&gt;u_10 -->
<g id="edge8" class="edge"><title>u_9:o_0&#45;&gt;u_10:i_0</title>
<path fill="none" stroke="black" d="M199,-153C199,-153 199,-118.289 199,-108.527"/>
<polygon fill="black" stroke="black" points="198,-106 200,-106 200,-108 198,-108 198,-106"/>
<polyline fill="none" stroke="black" points="199,-108 199,-108.5 "/>
</g>
<!-- u_10&#45;&gt;u_16 -->
<g id="edge16" class="edge"><title>u_10:o_0&#45;&gt;u_16:i_1</title>
<path fill="none" stroke="black" d="M273,-77C273,-77 273,-40.8123 273,-30.6345"/>
<polygon fill="black" stroke="black" points="272,-28 274,-28 274,-30 272,-30 272,-28"/>
<polyline fill="none" stroke="black" points="273,-30 273,-30.5 "/>
</g>
<!-- u_12 -->
<g id="node13" class="node"><title>u_12</title>
<polygon fill="none" stroke="blue" points="267,-314 267,-333 327,-333 327,-314 267,-314"/>
<text text-anchor="start" x="270.5" y="-320.9" font-family="Courier,monospace" font-size="12.00">MIDICPS</text>
<polygon fill="none" stroke="blue" points="329,-314 329,-333 335,-333 335,-314 329,-314"/>
<polygon fill="none" stroke="blue" points="329,-306 329,-312 335,-312 335,-306 329,-306"/>
</g>
<!-- u_11&#45;&gt;u_12 -->
<g id="edge11" class="edge"><title>u_11:o_0&#45;&gt;u_12:i_0</title>
<path fill="none" stroke="blue" d="M332,-381C332,-381 332,-346.289 332,-336.527"/>
<polygon fill="blue" stroke="blue" points="331,-334 333,-334 333,-336 331,-336 331,-334"/>
<polyline fill="none" stroke="blue" points="332,-336 332,-336.5 "/>
</g>
<!-- u_13 -->
<g id="node14" class="node"><title>u_13</title>
<polygon fill="none" stroke="black" points="274,-238 274,-257 327,-257 327,-238 274,-238"/>
<text text-anchor="start" x="277.5" y="-244.9" font-family="Courier,monospace" font-size="12.00">SinOsc</text>
<polygon fill="none" stroke="black" points="329,-238 329,-257 335,-257 335,-238 329,-238"/>
<polygon fill="none" stroke="black" points="337,-238 337,-257 351,-257 351,-238 337,-238"/>
<text text-anchor="start" x="340" y="-244.9" font-family="Courier,monospace" font-size="12.00">0</text>
<polygon fill="none" stroke="black" points="337,-230 337,-236 351,-236 351,-230 337,-230"/>
</g>
<!-- u_12&#45;&gt;u_13 -->
<g id="edge12" class="edge"><title>u_12:o_0&#45;&gt;u_13:i_0</title>
<path fill="none" stroke="blue" d="M332,-305C332,-305 332,-270.289 332,-260.527"/>
<polygon fill="blue" stroke="blue" points="331,-258 333,-258 333,-260 331,-260 331,-258"/>
<polyline fill="none" stroke="blue" points="332,-260 332,-260.5 "/>
</g>
<!-- u_14 -->
<g id="node15" class="node"><title>u_14</title>
<polygon fill="none" stroke="black" points="324,-162 324,-181 339,-181 339,-162 324,-162"/>
<text text-anchor="start" x="327.5" y="-168.9" font-family="Courier,monospace" font-size="12.00">*</text>
<polygon fill="none" stroke="black" points="341,-162 341,-181 347,-181 347,-162 341,-162"/>
<polygon fill="none" stroke="black" points="349,-162 349,-181 386,-181 386,-162 349,-162"/>
<text text-anchor="start" x="352" y="-168.9" font-family="Courier,monospace" font-size="12.00">0.04</text>
<polygon fill="none" stroke="black" points="349,-154 349,-160 386,-160 386,-154 349,-154"/>
</g>
<!-- u_13&#45;&gt;u_14 -->
<g id="edge13" class="edge"><title>u_13:o_0&#45;&gt;u_14:i_0</title>
<path fill="none" stroke="black" d="M344,-229C344,-229 344,-194.289 344,-184.527"/>
<polygon fill="black" stroke="black" points="343,-182 345,-182 345,-184 343,-184 343,-182"/>
<polyline fill="none" stroke="black" points="344,-184 344,-184.5 "/>
</g>
<!-- u_15 -->
<g id="node16" class="node"><title>u_15</title>
<polygon fill="none" stroke="black" points="318,-86 318,-105 363,-105 363,-86 318,-86"/>
<text text-anchor="start" x="321.5" y="-92.9" font-family="Courier,monospace" font-size="12.00">CombN</text>
<polygon fill="none" stroke="black" points="365,-86 365,-105 371,-105 371,-86 365,-86"/>
<polygon fill="none" stroke="black" points="373,-86 373,-105 402,-105 402,-86 373,-86"/>
<text text-anchor="start" x="376" y="-92.9" font-family="Courier,monospace" font-size="12.00">0.2</text>
<polygon fill="none" stroke="black" points="404,-86 404,-105 433,-105 433,-86 404,-86"/>
<text text-anchor="start" x="407" y="-92.9" font-family="Courier,monospace" font-size="12.00">0.2</text>
<polygon fill="none" stroke="black" points="435,-86 435,-105 449,-105 449,-86 435,-86"/>
<text text-anchor="start" x="438" y="-92.9" font-family="Courier,monospace" font-size="12.00">4</text>
<polygon fill="none" stroke="black" points="435,-78 435,-84 449,-84 449,-78 435,-78"/>
</g>
<!-- u_14&#45;&gt;u_15 -->
<g id="edge14" class="edge"><title>u_14:o_0&#45;&gt;u_15:i_0</title>
<path fill="none" stroke="black" d="M368,-153C368,-153 368,-118.289 368,-108.527"/>
<polygon fill="black" stroke="black" points="367,-106 369,-106 369,-108 367,-108 367,-106"/>
<polyline fill="none" stroke="black" points="368,-108 368,-108.5 "/>
</g>
<!-- u_15&#45;&gt;u_16 -->
<g id="edge17" class="edge"><title>u_15:o_0&#45;&gt;u_16:i_2</title>
<path fill="none" stroke="black" d="M442,-77C442,-77 304.012,-35.0035 283.529,-28.7697"/>
<polygon fill="black" stroke="black" points="280.709,-28.9567 281.291,-27.0433 283.205,-27.6257 282.622,-29.5391 280.709,-28.9567"/>
<polyline fill="none" stroke="black" points="282.913,-28.5824 283.392,-28.728 "/>
</g>
</g>
</svg>
